Date,Distance (m)
2013-12-04,117485.30113205004
2013-12-05,357358.4431795689
2013-12-06,1319407.1662479616
2013-12-07,95501.0909760976
2013-12-08,1064728.6764980261
2013-12-09,264197.0550972657
2013-12-10,1070124.5497074253
2013-12-11,132748.1026739842
2013-12-12,1169937.7354570462
2013-12-13,369309.3698895923
2013-12-14,1155724.9737783691
2013-12-15,792834.8733144188
2013-12-16,1143971.6473749261
2013-12-17,1711863.8476293837
2013-12-18,594198.1599699804
2013-12-19,1153545.9590190898
2013-12-20,1517945.128120065
2013-12-21,1634674.7076310979
2013-12-22,1240490.8943280214
2013-12-23,724481.8036868793
2013-12-24,304.77486868693825
2013-12-25,63.676175124925464
2013-12-26,33.65434620724116
2013-12-27,66411.31430607573
2013-12-28,26.7589010650127
2013-12-29,145808.81816985446
2013-12-30,699569.0690669632
2013-12-31,558629.0513414703
2014-01-01,472407.2235286001
2014-01-02,528688.2096599464
2014-01-03,1163615.5880984226
2014-01-04,761653.622343515
2014-01-05,991704.1196911001
2014-01-06,1136099.7840148688
2014-01-07,1199136.169673838
2014-01-08,1480363.3892457506
2014-01-09,1354730.8493259114
2014-01-10,962301.1987981164
2014-01-11,1570217.312733427
2014-01-12,656089.2155496768
2014-01-13,877256.5578219594
2014-01-14,677860.576230105
2014-01-15,1631987.9531752209
2014-01-16,724207.735827079
2014-01-17,277692.1107769054
2014-01-18,138895.36687196797
2014-01-19,183631.9145937783
2014-01-20,76240.55245763918
2014-01-21,97270.30525924539
2014-01-22,212332.68302388844
2014-01-23,166228.6427040199
2014-01-24,186997.6230127363
2014-01-25,202864.16077884787
2014-01-26,412275.01743133256
2014-01-27,524071.88057738007
2014-01-28,141485.79023496917
2014-01-29,176353.35484294267
2014-01-30,88135.65127897325
2014-01-31,433306.2944587861
2014-02-01,1119481.0366488383
2014-02-02,655266.7980180004
2014-02-03,718668.8770504569
2014-02-04,182943.19944464622
2014-02-05,58622.21206005215
2014-02-06,392551.59423996933
2014-02-07,1123360.9371593047
2014-02-08,420129.79305490956
2014-02-09,939422.7143823322
2014-02-10,634805.5494929472
2014-02-11,112599.72168147149
2014-02-12,151277.1556029077
2014-02-13,168011.8594367718
2014-02-14,129796.07090548846
2014-02-15,360410.1884290275
2014-02-16,97498.36763625032
2014-02-17,142976.13820677318
2014-02-18,116312.4755954136
2014-02-19,109622.91358916835
2014-02-20,112864.96403367956
2014-02-21,151521.16033279547
2014-02-22,49013.18283437514
2014-02-23,183249.54030677117
2014-02-24,110707.46887720117
2014-02-25,157365.36150746094
2014-02-26,192383.40010070504
2014-02-27,226656.81477807063
2014-02-28,214209.64969406932
2014-03-01,211560.25506442186
2014-03-02,121935.91450637513
2014-03-03,262468.30556454713
2014-03-04,190208.0128762585
2014-03-05,200443.66870095857
2014-03-06,167031.47806172934
2014-03-07,178637.661235149
2014-03-08,349407.9538483456
2014-03-09,306874.1331431748
2014-03-10,236227.3399417557
2014-03-11,144667.55590021756
2014-03-12,114760.29297733358
2014-03-13,216230.42262334746
2014-03-14,369895.0162732426
2014-03-15,359084.8736689689
2014-03-16,250153.95271058168
2014-03-17,213079.3339040662
2014-03-18,236022.26550648976
2014-03-19,162747.72951003865
2014-03-20,300723.77178358176
2014-03-21,534736.9575520236
2014-03-22,1320793.761694277
2014-03-23,402726.2011390144
2014-03-24,277639.8197927819
2014-03-25,243506.9830740849
2014-03-26,178703.27979808135
2014-03-27,229964.3973031218
2014-03-28,497722.9865151749
2014-03-29,1000628.4126496018
2014-03-30,791257.023926665
2014-03-31,739872.0027234462
2014-04-01,242715.48004593208
2014-04-02,125617.39164362795
2014-04-03,232060.98221558653
2014-04-04,558311.2510513798
2014-04-05,991334.2897147301
2014-04-06,1083327.121557436
2014-04-07,177127.95712766596
2014-04-08,73901.99899148497
2014-04-09,81687.98078423398
2014-04-10,308107.17305517045
2014-04-11,201668.10768211982
2014-04-12,255683.00880871835
2014-04-13,104073.43646795429
2014-04-14,76274.34768023169
2014-04-15,5304.85775797067
2014-04-16,3337.590329298665
2014-04-17,370534.0011405153
2014-04-18,860699.1960954873
2014-04-19,194805.4500135857
2014-04-20,229215.82741645264
2014-04-21,896493.4491426579
2014-04-22,662246.6971721445
2014-04-23,116043.91179357462
2014-04-24,163035.00040574372
2014-04-25,189919.92813943146
2014-04-26,459169.2739131814
2014-04-27,274624.5480980758
2014-04-28,129426.1306849591
2014-04-29,162629.3072576917
2014-04-30,199708.2443817961
2014-05-01,73502.01672749249
2014-05-02,390067.34154822555
2014-05-03,344344.97580967925
2014-05-04,497154.06539488316
2014-05-05,916466.2691659346
2014-05-06,698014.3596154364
2014-05-07,793482.043521191
2014-05-08,290433.0502318737
2014-05-09,460164.414808037
2014-05-10,1028198.4329813571
2014-05-11,216312.57155140303
2014-05-12,743946.4252437594
2014-05-13,799752.0172723883
2014-05-14,452484.8351263768
2014-05-15,389971.621632458
2014-05-16,1088730.331868369
2014-05-17,77305.00195189266
2014-05-18,936397.4817467923
2014-05-19,537694.7432038338
2014-05-20,215877.5802254443
2014-05-21,225958.96968689197
2014-05-22,318856.8481593871
2014-05-23,1208036.837918707
2014-05-24,666173.2567508289
2014-05-25,740959.7064569374
2014-05-26,235737.30360903186
2014-05-27,187710.30410212473
2014-05-28,190650.96526771924
2014-05-29,140744.24998360834
2014-05-30,275757.8162945306
2014-05-31,1201726.8581429443
2014-06-01,113423.94087986351
2014-06-02,903777.3767579177
2014-06-03,634996.1199553082
2014-06-04,317913.3251582093
2014-06-05,242830.61448556988
2014-06-06,440232.2446129282
2014-06-07,979742.2007581743
2014-06-08,171436.78726462528
2014-06-09,699916.693396757
2014-06-10,621157.8079221528
2014-06-11,164188.1782209623
2014-06-12,226651.49988179276
2014-06-13,407019.4461366008
2014-06-14,759465.1610434543
2014-06-15,13.343409628441854
2014-06-16,19.55662291805509
2014-06-17,137759.3122670176
2014-06-18,3736.2060009645047
2014-06-19,482.6149745442912
2014-06-20,23.68809003095135
2014-06-21,42.78362319131733
2014-06-22,54.02603951819091
2014-06-23,91.28033307338518
2014-06-24,85.6660793486394
2014-06-25,77.55592870596647
2014-06-26,132.07792121311016
2014-06-27,0.0
2014-06-28,112.42278212526165
2014-07-03,266.49199888790366
2014-07-04,1037.0233013052534
2014-07-05,222.1819253482499
2014-07-06,170.7795649738905
2014-07-07,183537.4913121782
2014-07-08,257112.02868277594
2014-07-09,427121.43956133694
2014-07-10,1532040.6465013702
2014-07-11,1156849.847812219
2014-07-12,1070273.0154571591
2014-07-13,874290.2056896212
2014-07-14,656737.5472147333
2014-07-15,97461.32240968707
2014-07-16,173147.1922636935
2014-07-17,127410.73874998669
2014-07-18,359372.6885691565
2014-07-19,955863.7217045955
2014-07-20,1040292.0653420069
2014-07-21,882951.5616528082
2014-07-22,179840.13346448424
2014-07-23,134775.3319792082
2014-07-24,231915.7824158101
2014-07-25,216816.90457408145
2014-07-26,582476.269541687
2014-07-27,1319484.4652970333
2014-07-28,837777.3232113706
2014-07-29,146095.4711851608
2014-07-30,190300.90503099095
2014-07-31,209031.07972527773
2014-08-01,438998.3504834824
2014-08-02,728334.0708931257
2014-08-03,447971.6943036912
2014-08-04,581215.1638097309
2014-08-05,128954.76938482406
2014-08-06,320573.617306714
2014-08-07,399809.84149527445
2014-08-08,1058022.6608930344
2014-08-09,222347.60241178915
2014-08-10,792196.2795256623
2014-08-11,545660.4241052466
2014-08-12,244954.9450324805
2014-08-13,215537.9271243327
2014-08-14,463498.8114373953
2014-08-15,1107492.6330819342
2014-08-16,381808.65039122663
2014-08-17,653689.53859064
2014-08-18,833557.7350937641
2014-08-19,110562.35721923283
2014-08-20,120934.59935520099
2014-08-21,94834.93822102263
2014-08-22,202125.8179291625
2014-08-23,232686.35832964652
2014-08-24,112149.00621024895
2014-08-25,158614.86195159133
2014-08-26,92988.40976105166
2014-08-27,115338.59871002757
2014-08-28,237842.6591555736
2014-08-29,160551.66353245312
2014-08-30,128696.75312990713
2014-08-31,139588.51664278988
2014-09-01,238072.941446353
2014-09-02,237714.66838000104
2014-09-03,251148.37958644342
2014-09-04,346533.7501313708
2014-09-05,1206965.8153220317
2014-09-06,117561.49117184067
2014-09-07,668064.5235466599
2014-09-08,633435.936182379
2014-09-09,120104.56851548566
2014-09-10,255015.29839333906
2014-09-11,505429.26287205797
2014-09-12,1078577.4921088938
2014-09-13,157522.40512522153
2014-09-14,762552.2936233399
2014-09-15,720186.7214339871
2014-09-16,191295.39650446834
2014-09-17,247102.30775643053
2014-09-18,405491.63940386334
2014-09-19,1260454.0849076689
2014-09-20,187070.11946853538
2014-09-21,755356.0707763335
2014-09-22,654248.3492666563
2014-09-23,96478.25775503066
2014-09-24,75933.47498912243
2014-09-25,265101.83613623126
2014-09-26,214572.28436916752
2014-09-27,248133.72044941763
2014-09-28,176898.29183064066
2014-09-29,120644.37669489923
2014-09-30,207241.08045295542
2014-10-01,331612.40641892987
2014-10-02,432839.0401850263
2014-10-03,1179240.887799994
2014-10-04,94.01151123934655
2014-10-05,929497.4725906318
2014-10-06,494885.8440893578
2014-10-07,296302.8835056721
2014-10-08,164226.7165780809
2014-10-09,69795.78257626525
2014-10-10,309576.62850301684
2014-10-11,339973.32989224826
2014-10-12,393155.2333512855
2014-10-13,807039.2004277598
2014-10-14,185152.79660423554
2014-10-15,197447.94194718267
2014-10-16,369078.22792786086
2014-10-17,1099477.0573916247
2014-10-18,188134.4457868752
2014-10-19,472322.40527214814
2014-10-20,22607.876220699323
2014-10-21,704114.519832625
2014-10-22,780387.5672267076
2014-10-23,262528.409685092
2014-10-24,385033.4097729689
2014-10-25,971184.2119733946
2014-10-26,714248.7952627762
2014-10-27,591168.6708086563
2014-10-28,213557.25574751562
2014-10-29,95846.27651129813
2014-10-30,521862.6230142625
2014-10-31,945569.6973629033
2014-11-01,193509.189356167
2014-11-02,634550.5006757055
2014-11-03,819598.7551856092
2014-11-04,187309.358896038
2014-11-05,305735.20564950263
2014-11-06,274002.09526131477
2014-11-07,261486.74129795222
2014-11-08,1120628.9127201089
2014-11-09,767724.5188737065
2014-11-10,572011.9929942008
2014-11-11,280257.0616064517
2014-11-12,142471.8864318222
2014-11-13,191335.28460382277
2014-11-14,241254.36480883235
2014-11-15,304985.7383133354
2014-11-16,362581.2188155263
2014-11-17,986260.6181001068
2014-11-18,300164.1455650216
2014-11-19,718743.5288700209
2014-11-20,650504.0831626244
2014-11-21,513741.47264338116
2014-11-22,507582.59885007545
2014-11-23,447662.5686186754
2014-11-24,859762.9731158363
2014-11-25,0.0
2014-11-26,198331.9229020605
2014-11-27,1409260.99301067
2014-11-28,989745.9285078588
2014-11-29,1099737.0503563422
2014-11-30,1362573.7269119672
2014-12-01,828322.1996038595
2014-12-02,381634.66632175475
2014-12-03,1245072.7745352536
2014-12-04,1512425.6607544366
2014-12-05,854064.444005867
2014-12-06,1048070.3239178318
2014-12-07,702003.9813061674
2014-12-08,1053836.9858553784
2014-12-09,1212402.2712029598
2014-12-10,222435.71244353298
2014-12-11,754848.9646702498
2014-12-12,983760.863018216
2014-12-13,720137.801405675
2014-12-14,905144.0530197554
2014-12-15,883712.7042515571
2014-12-16,1442419.3909434201
2014-12-17,824766.6955496283
2014-12-18,1392621.4308796942
2014-12-19,965144.5805366812
2014-12-20,1329789.5483875088
2014-12-21,1196174.9790989289
2014-12-22,1181599.150763288
2014-12-23,833151.4294730033
2014-12-24,679172.2644012657
2014-12-25,972747.3428453151
2014-12-26,1044441.6937533838
2014-12-27,855796.4032553763
2014-12-28,173736.38552335836
2014-12-29,60874.25071918073
2014-12-30,690104.4577091667
2014-12-31,930430.3561082319
2015-01-01,66107.07809315434
2015-01-02,761294.9371288017
2015-01-03,1526797.3588786775
2015-01-04,1321891.4091030944
2015-01-05,1476362.4174062463
2015-01-06,1239923.5752660774
2015-01-07,1014392.6937604566
2015-01-08,1079692.746894242
2015-01-09,1488879.4869925524
2015-01-10,1605152.4001764206
2015-01-11,990261.7235678686
2015-01-12,1511670.580612904
2015-01-13,1574438.6415311296
2015-01-14,808053.1803744504
2015-01-15,1287186.396926493
2015-01-16,1398451.2613269156
2015-01-17,1073408.7320923794
2015-01-18,1400073.7231391731
2015-01-19,1305386.88643056
2015-01-20,523137.41787313716
2015-01-21,857807.4420680241
2015-01-22,926831.2260919571
2015-01-23,859426.7262704271
2015-01-24,212877.50096548093
2015-01-25,682878.5405302896
2015-01-26,770704.1902065438
2015-01-27,112513.60103548662
2015-01-28,154889.0812900933
2015-01-29,266464.0681516846
2015-01-30,1066686.77595208
2015-01-31,380067.8572655728
2015-02-01,142437.82530597202
2015-02-02,849174.6197198561
2015-02-03,574351.5013845424
2015-02-04,173617.1936627904
2015-02-05,189307.90917951704
2015-02-06,441318.78459539235
2015-02-07,950158.4938168828
2015-02-08,622076.7512169353
2015-02-09,897930.3296513538
2015-02-10,947826.9754856105
2015-02-11,357617.0377215663
2015-02-12,298638.84987883084
2015-02-13,675488.9584259163
2015-02-14,1186080.1770555116
2015-02-15,1243982.9005965032
2015-02-16,763745.7380163079
2015-02-17,127454.44392463537
2015-02-18,150674.80277482542
2015-02-19,337222.29701738287
2015-02-20,1195931.8703732383
2015-02-21,159988.55218337948
2015-02-22,836235.1680818357
2015-02-23,613750.5149951781
2015-02-24,204509.64403792625
2015-02-25,237684.2614356688
2015-02-26,439369.6056051479
2015-02-27,1167015.2174102326
2015-03-01,599729.0024154324
2015-03-02,714660.6310291652
2015-03-03,254895.4392149473
2015-03-04,174088.17492745348
2015-03-05,342377.88442623784
2015-03-06,1171285.3674065247
2015-03-07,169459.96230749166
2015-03-08,824669.430390885
2015-03-09,1053675.0793980013
2015-03-10,686575.3204870803
2015-03-11,65274.750623898166
2015-03-12,54633.974462795646
2015-03-13,99555.54733796598
2015-03-14,79295.32484956099
2015-03-15,78353.93587209911
2015-03-16,711912.2986819396
2015-03-17,612048.5245938954
2015-03-18,149935.11121351604
2015-03-19,108738.56255936439
2015-03-20,221777.6063849687
2015-03-21,218092.59338822417
2015-03-22,291497.21783458337
2015-03-23,177684.94480339024
2015-03-24,134820.24728782004
2015-03-25,213189.90163481073
2015-03-26,346529.24379788793
2015-03-27,1084998.4706155246
2015-03-28,163849.26792731578
2015-03-29,151685.34149211465
2015-03-30,231132.8436799703
2015-03-31,120262.51238122892
2015-04-01,673745.9590114161
2015-04-02,833561.1794848258
2015-04-03,1044210.1461338802
2015-04-04,1035337.7608083381
2015-04-05,1164707.400726093
2015-04-06,501518.88449642394
2015-04-07,896176.411408702
2015-04-08,181308.9403742493
2015-04-09,471055.8304309186
2015-04-10,1167094.382085029
2015-04-11,178749.1477985251
2015-04-12,681792.6097476206
2015-04-13,1533085.0525145847
2015-04-14,386877.87160855264
2015-04-15,267258.3975322373
2015-04-16,72582.20245673136
2015-04-17,814127.0931204146
2015-04-18,617170.0960310916
2015-04-19,309972.3039754464
2015-04-20,164106.1085774749
2015-04-21,217175.63968554168
2015-04-22,210588.6119699305
2015-04-23,259520.81653684963
2015-04-24,536548.6272633722
2015-04-25,798321.672870296
2015-04-26,604739.6599076133
2015-04-27,797310.185194397
2015-04-28,169540.5482565521
2015-04-29,198400.42458390872
2015-04-30,512039.4782025183
2015-05-01,831387.803822044
2015-05-02,83392.06770453672
2015-05-03,855964.1985891026
2015-05-04,608144.7204268596
2015-05-05,355063.57059522404
2015-05-06,221124.18444934007
2015-05-07,317012.73076453636
2015-05-08,1092426.537983886
2015-05-09,75779.49594465402
2015-05-10,775828.936758631
2015-05-11,392378.41711452696
2015-05-12,252272.7301695242
2015-05-13,214877.24267458034
2015-05-14,202877.66057829506
2015-05-15,543256.6430628011
2015-05-16,926550.9413433552
2015-05-17,844172.0587065386
2015-05-18,572694.9374286949
2015-05-19,272691.4644162666
2015-05-20,347083.33161668055
2015-05-21,455486.8623449041
2015-05-22,985253.8348254346
2015-05-23,97856.76568552315
2015-05-24,814528.6744249971
2015-05-25,708072.5905463516
2015-05-26,162271.56469848368
2015-05-27,211498.94541759946
2015-05-28,278750.5554992667
2015-05-29,321512.21417545166
2015-05-30,128252.04697617129
2015-05-31,569899.1919979819
2015-06-01,1147228.3479384624
2015-06-02,1093437.8209306933
2015-06-03,245642.932118746
2015-06-04,367002.7896379208
2015-06-05,981939.4479030182
2015-06-06,57103.62790177353
2015-06-07,834307.8049190165
2015-06-08,851326.010882965
2015-06-09,831105.5791148877
2015-06-10,60476.6429135164
2015-06-11,67539.81787437889
2015-06-12,113.73167798754844
2015-06-13,8945.411362581333
2015-06-14,131110.50346267794
2015-06-15,656783.3182944909
2015-06-16,655040.0066455905
2015-06-17,223304.3374090573
2015-06-18,165032.04801667156
2015-06-19,486881.43187969684
2015-06-20,1038251.6900790931
2015-06-21,619811.5735160327
2015-06-22,720175.0601449686
2015-06-23,317456.13098583696
2015-06-24,198515.73062863256
2015-06-25,186865.38872938958
2015-06-26,332225.5031233518
2015-06-27,1242755.7314058673
2015-06-28,742060.0284311331
2015-06-29,623875.486474197
2015-06-30,138839.47477884075
2015-07-01,152639.44540739435
2015-07-02,411508.27168325346
2015-07-03,1159622.5897458184
2015-07-04,191730.0168079923
2015-07-05,855030.7769980192
2015-07-06,733682.3860523861
2015-07-07,250215.63771630646
2015-07-08,234697.0631509313
2015-07-09,288406.49273148633
2015-07-10,1249433.3673275276
2015-07-11,239461.58072591262
2015-07-12,606643.4589670749
2015-07-13,976773.7591304176
2015-07-14,286398.4081134304
2015-07-15,298302.47515785677
2015-07-16,144144.08877608576
2015-07-17,259765.6760677055
2015-07-18,1278753.4536283093
2015-07-19,584513.1012101193
2015-07-20,874543.1682810659
2015-07-21,119843.73559760948
2015-07-22,160305.552149295
2015-07-23,196026.65317342797
2015-07-24,308543.42828667484
2015-07-25,984640.7474817667
2015-07-26,828840.5720609586
2015-07-27,645506.5987985684
2015-07-28,212827.10117590873
2015-07-29,169117.65316375313
2015-07-30,96383.83495839707
2015-07-31,155075.28504366896
2015-08-01,169766.68209467648
2015-08-02,263090.8033473641
2015-08-03,247652.15567292637
2015-08-04,272027.40090625
2015-08-05,218779.60598491254
2015-08-06,262619.8801121915
2015-08-07,339934.87353052426
2015-08-08,1282218.3166725675
2015-08-09,694747.9148089199
2015-08-10,735131.7409938878
2015-08-11,241030.1102729721
2015-08-12,225318.44471042042
2015-08-13,207778.37205011985
2015-08-14,478330.6184722468
2015-08-15,837848.5345233221
2015-08-16,729238.8192976256
2015-08-17,685807.6389054047
2015-08-18,1146200.4976478422
2015-08-19,127210.33340269353
2015-08-20,700744.3344669851
2015-08-21,877685.1513402957
2015-08-22,1070166.0779030425
2015-08-23,507954.1274972679
2015-08-24,945170.5296025759
2015-08-25,163865.94562130744
2015-08-26,187479.46979355247
2015-08-27,236455.52079951856
2015-08-28,322594.70276072813
2015-08-29,178955.1689553303
2015-08-30,222839.4704641393
2015-08-31,240225.10970807477
2015-09-01,286222.3333909185
2015-09-02,149962.51075920358
2015-09-03,276662.9731615307
2015-09-04,382827.3723196251
2015-09-05,1027528.62366666
2015-09-06,106123.06267574662
2015-09-07,79342.90575751131
2015-09-08,650956.0974524847
2015-09-09,722899.0394195908
2015-09-10,398206.9545437352
2015-09-11,1164339.0632258914
2015-09-12,58604.688850337334
2015-09-13,844719.4525892982
2015-09-14,775414.6065523789
2015-09-15,177823.52299905437
2015-09-16,232521.04032529806
2015-09-17,160756.23143902584
2015-09-18,743347.8472171295
2015-09-19,774241.6026975681
2015-09-20,746537.3752888384
2015-09-21,701006.1970153719
2015-09-22,240444.44980307503
2015-09-23,229887.30477390756
2015-09-24,603253.3564852461
2015-09-25,758636.0852177308
2015-09-26,148278.4670869384
2015-09-27,624578.4129956539
2015-09-28,827395.4067962861
2015-09-29,220110.20616849556
2015-09-30,238111.10449933942
2015-10-01,342330.08832861675
2015-10-02,1043315.0713439276
2015-10-03,139899.32282416787
2015-10-04,860901.9749405242
2015-10-05,1136489.2261239595
2015-10-06,503301.1462426466
2015-10-07,269411.6098547043
2015-10-08,136368.3301210265
2015-10-09,601919.0132810037
2015-10-10,734148.1322229472
2015-10-11,507273.6418094294
2015-10-12,1652712.1728759503
2015-10-13,518231.34051502025
2015-10-14,1149298.8413886495
2015-10-15,794742.9768715437
2015-10-16,692573.49279761
2015-10-17,1547528.7031910731
2015-10-18,612462.0606116937
2015-10-19,185529.2164300507
2015-10-20,234552.89102227148
2015-10-21,195820.15314671246
2015-10-22,247580.98433330076
2015-10-23,455019.66971596505
2015-10-24,926196.2487160148
2015-10-25,869776.4895604025
2015-10-26,708295.9008837142
2015-10-27,119047.35910755278
2015-10-28,112209.53919531914
2015-10-29,269556.90723166533
2015-10-30,538584.9078578001
2015-10-31,912211.7492860592
