Date,Distance (m)
2013-12-04,257935.6628541169
2013-12-05,1518146.6005502457
2013-12-06,677390.3985581142
2013-12-07,125456.94914992378
2013-12-08,812864.3799059496
2013-12-09,687010.5815469103
2013-12-10,1386303.7167113342
2013-12-11,1021858.0994383869
2013-12-12,1085296.6601578104
2013-12-13,783732.0423084253
2013-12-14,1333420.6489133344
2013-12-15,1117464.517874568
2013-12-16,1209729.8588972264
2013-12-17,1043888.3499373638
2013-12-18,1162938.6975400453
2013-12-19,1234321.853082834
2013-12-20,1452238.2975596862
2013-12-21,723014.64787982
2013-12-22,1296760.331456713
2013-12-23,1358271.89073296
2013-12-24,341035.3796691347
2013-12-25,1097111.3450375907
2013-12-26,291673.3147490439
2013-12-27,608652.5110784417
2013-12-28,766505.9857884942
2013-12-29,1037352.2742494768
2013-12-30,889702.5995935275
2013-12-31,921936.2427256907
2014-01-01,39.9274799369563
2014-01-02,70437.45149660281
2014-01-03,829254.2972321918
2014-01-04,894005.9740594849
2014-01-05,1188896.768813366
2014-01-06,1137849.2320798326
2014-01-07,1539622.7960348355
2014-01-08,814192.1806747256
2014-01-09,833484.4087359855
2014-01-10,1599108.0549332458
2014-01-11,821186.5236240425
2014-01-12,1579423.133137784
2014-01-13,1385502.1124521664
2014-01-14,1592130.0006093646
2014-01-15,478874.549460654
2014-01-16,71761.88551325255
2014-01-17,468239.1340064649
2014-01-18,1071743.2854546544
2014-01-19,811100.9596228008
2014-01-20,551394.432020609
2014-01-21,127797.45249705452
2014-01-22,117897.7731241649
2014-01-23,334369.91907172004
2014-01-24,1071667.995705016
2014-01-25,202241.1060264607
2014-01-26,714153.978780825
2014-01-27,1496757.2560730434
2014-01-28,894256.3021421917
2014-01-29,184168.87813008492
2014-01-30,158092.46107236776
2014-01-31,476868.8035399959
2014-02-01,974170.4834114971
2014-02-02,826327.1525613762
2014-02-03,616529.5388089407
2014-02-04,270279.6673005625
2014-02-05,180929.41777783696
2014-02-06,265465.58291466336
2014-02-07,332725.75463754806
2014-02-08,1061805.031926944
2014-02-09,998911.8826784878
2014-02-10,589904.2224197622
2014-02-11,447962.13944302755
2014-02-12,1366641.877904339
2014-02-13,549010.7853424742
2014-02-14,551913.5717207945
2014-02-15,1238243.7407366286
2014-02-16,558175.273824917
2014-02-17,628821.512206372
2014-02-18,146159.5286922731
2014-02-19,170720.68818186657
2014-02-20,208932.13045276652
2014-02-21,382916.4992327188
2014-02-22,981436.9359995188
2014-02-23,746127.2249963924
2014-02-24,839656.2384900503
2014-02-25,137428.56186639593
2014-02-26,248303.14652977092
2014-02-27,258180.53006697996
2014-02-28,485571.3016263037
2014-03-01,1093915.722820427
2014-03-02,643946.292683246
2014-03-03,1269132.5814885693
2014-03-04,428410.5430205226
2014-03-05,228285.29149227293
2014-03-06,334410.6805058435
2014-03-07,520586.406393633
2014-03-08,1134423.249695839
2014-03-09,802533.4192169019
2014-03-10,667549.2794788382
2014-03-11,195726.17927922908
2014-03-12,211863.88260018668
2014-03-13,230518.2470495468
2014-03-14,521663.35164511873
2014-03-15,1069397.6674385618
2014-03-16,778638.8740056752
2014-03-17,800135.6855747692
2014-03-18,281616.0243170948
2014-03-19,286465.63684218674
2014-03-20,445533.7443127675
2014-03-21,1228584.521428555
2014-03-22,150422.19321137652
2014-03-23,973091.3803178142
2014-03-24,565527.6529299337
2014-03-25,213768.95633084353
2014-03-26,191846.316885542
2014-03-27,189382.62431249605
2014-03-28,571462.1343384899
2014-03-29,1052006.7548134786
2014-03-30,819427.2529160873
2014-03-31,797006.6991610046
2014-04-01,233474.9751889979
2014-04-02,406264.8516631292
2014-04-03,567795.8361286104
2014-04-04,963861.8103888149
2014-04-05,156907.84816857483
2014-04-06,977581.3466388118
2014-04-07,617687.5289310949
2014-04-08,295551.5725749761
2014-04-09,247017.19240127303
2014-04-10,273326.45393298496
2014-04-11,389178.47332334355
2014-04-12,1022922.646677186
2014-04-13,832753.520813075
2014-04-14,600737.2755500579
2014-04-15,146776.8386834923
2014-04-16,276302.436142483
2014-04-17,385034.75904642936
2014-04-18,1272238.8911107106
2014-04-19,132021.5229153206
2014-04-20,1146531.5675241335
2014-04-21,349421.4699940472
2014-04-22,166229.45409885043
2014-04-23,150631.09429165206
2014-04-24,234010.21966795265
2014-04-25,368644.46279734146
2014-04-26,1058799.6241421087
2014-04-27,326966.2835092563
2014-04-28,1058143.1261702331
2014-04-29,552801.6840884836
2014-04-30,228820.94337181922
2014-05-01,195919.34383432282
2014-05-02,438357.8271956584
2014-05-03,1068886.4059361655
2014-05-04,858332.1717932322
2014-05-05,582939.5551555156
2014-05-06,171972.06232399846
2014-05-07,180932.31314316153
2014-05-08,197955.0351916759
2014-05-09,1278140.6962991126
2014-05-10,151053.88691970054
2014-05-11,566829.4381419697
2014-05-12,1012693.0062151374
2014-05-13,147403.58016393063
2014-05-14,243304.47332849033
2014-05-15,356404.05959975225
2014-05-16,1134221.5153981815
2014-05-17,204221.05981466305
2014-05-18,886088.4456258358
2014-05-19,586772.2995149979
2014-05-20,332300.7538238098
2014-05-21,147536.0244364285
2014-05-22,255599.98896762257
2014-05-23,558654.6718641227
2014-05-24,1002287.3023560133
2014-05-25,978665.076737612
2014-05-26,565576.0134100475
2014-05-27,117613.0970200369
2014-05-28,264111.91314445756
2014-05-29,236459.5098472913
2014-05-30,471578.5999429114
2014-05-31,337352.3509260647
2014-06-01,390712.4494814015
2014-06-02,267968.32149443665
2014-06-03,363684.05706876377
2014-06-04,443478.6918353132
2014-06-05,1093758.2535130472
2014-06-06,627965.825001153
2014-06-07,142905.383961788
2014-06-08,193049.78302527164
2014-06-09,207453.81733046434
2014-06-10,166771.06879162395
2014-06-11,446863.76555728406
2014-06-12,694909.0490815081
2014-06-13,959444.9349216177
2014-06-14,1011925.0992039508
2014-06-15,1066523.4941392655
2014-06-16,956198.6079645647
2014-06-17,964484.171360427
2014-06-18,874560.5506595856
2014-06-19,1009972.8927276892
2014-06-20,1159315.519919542
2014-06-21,1508672.2293694257
2014-06-22,643506.8354908192
2014-06-23,761907.3163176161
2014-06-24,165261.42377125123
2014-06-25,316674.84422485286
2014-06-26,1767833.8049873442
2014-06-27,937872.7883878114
2014-06-28,1109977.8993598782
2014-06-29,867340.2441383128
2014-06-30,739735.3281903019
2014-07-01,284283.2972472041
2014-07-02,720479.3483212338
2014-07-03,1414624.5885486663
2014-07-04,941618.2771398822
2014-07-05,1074756.884964483
2014-07-06,933409.2193764036
2014-07-07,655964.3913897766
2014-07-08,183445.6108333411
2014-07-09,177013.68989849824
2014-07-10,204025.85661394516
2014-07-11,360936.91255616373
2014-07-12,1243886.5526633617
2014-07-13,811233.9234228202
2014-07-14,872443.5178704663
2014-07-15,1010884.1135735812
2014-07-16,871143.9663822522
2014-07-17,954931.5585326796
2014-07-18,1304444.4862430631
2014-07-19,860412.1525437881
2014-07-20,849240.782561828
2014-07-21,1001413.1232087973
2014-07-22,790017.532968204
2014-07-23,667460.7274840036
2014-07-24,225142.737363799
2014-07-25,480565.56865784473
2014-07-26,1575500.4177379305
2014-07-27,925579.4819937663
2014-07-28,1011941.0757144109
2014-07-29,371715.52575800836
2014-07-30,390584.6071691096
2014-07-31,88131.9626425426
2014-08-01,609965.6824286408
2014-08-02,962082.9993738589
2014-08-03,725941.8028537566
2014-08-04,1259073.960130268
2014-08-05,611683.7161901894
2014-08-06,1017391.5662508989
2014-08-07,1728847.2760590299
2014-08-08,604122.5862787054
2014-08-09,163019.4341201738
2014-08-10,802702.7106919086
2014-08-11,868018.3660460034
2014-08-12,933129.1081894679
2014-08-13,786614.267804997
2014-08-14,1739625.1962424791
2014-08-15,506068.8885501055
2014-08-16,1169734.7519267614
2014-08-17,897555.5194455785
2014-08-18,745399.5685599495
2014-08-19,221661.63836508928
2014-08-20,230044.38496290665
2014-08-21,248296.80355620585
2014-08-22,566214.7732149103
2014-08-23,917643.7362204994
2014-08-24,872773.877729873
2014-08-25,470826.7620231097
2014-08-26,155945.75044653166
2014-08-27,188132.18661154274
2014-08-28,249283.23026559167
2014-08-29,454377.5295207336
2014-08-30,879411.6070188575
2014-08-31,832645.2655358897
2014-09-01,712347.3776886165
2014-09-02,287906.4771596463
2014-09-03,323873.55402832106
2014-09-04,451730.6541024167
2014-09-05,1049910.032914942
2014-09-06,68863.69549966666
2014-09-07,767617.6967698311
2014-09-08,611120.0322013723
2014-09-09,215350.3902507907
2014-09-10,444567.42097528937
2014-09-11,976694.1190710627
2014-09-12,91404.70652896441
2014-09-13,94010.19889356986
2014-09-14,579391.5762741868
2014-09-15,742001.4554849927
2014-09-16,86319.36018641636
2014-09-17,106977.21944779242
2014-09-18,174354.5800654491
2014-09-19,521842.7441442928
2014-09-20,756364.8964172136
2014-09-21,920853.6116368185
2014-09-22,604458.8967002777
2014-09-23,187648.67949359395
2014-09-24,100576.51691390057
2014-09-25,341506.03679343377
2014-09-26,1304513.4897296806
2014-09-27,132646.88426855337
2014-09-28,106742.02146135565
2014-09-29,595562.3792765487
2014-09-30,901630.8709560334
2014-10-01,206283.15409860315
2014-10-02,286005.4485055912
2014-10-03,586729.5032796104
2014-10-04,943009.4156424173
2014-10-05,778391.9868523151
2014-10-06,646240.7724908325
2014-10-07,205343.29777869978
2014-10-08,128249.97884125831
2014-10-09,143597.29504618808
2014-10-10,433655.0824544125
2014-10-11,848836.2182322951
2014-10-12,495786.2083491604
2014-10-13,1171333.068920563
2014-10-14,129919.4241578077
2014-10-15,72187.0716423145
2014-10-16,86233.78160937065
2014-10-17,74414.12567801445
2014-10-18,56849.71589436539
2014-10-19,652258.1646032219
2014-10-20,727850.8767804548
2014-10-21,242977.78733620927
2014-10-22,176989.47559127305
2014-10-23,429058.8554576399
2014-10-24,850106.9292553398
2014-10-25,359332.7405386631
2014-10-26,947781.4465872127
2014-10-27,457343.1039653172
2014-10-28,209260.01042871922
2014-10-29,158126.41436853076
2014-10-30,152322.3655541481
2014-10-31,536514.1916693798
2014-11-01,999533.6974990342
2014-11-02,682627.7698330741
2014-11-03,623732.9973875971
2014-11-04,216528.02690170496
2014-11-05,374302.91281964205
2014-11-06,1204003.5020140181
2014-11-07,94538.65495992506
2014-11-08,678016.9503264859
2014-11-09,1006883.8565638395
2014-11-10,1106615.0584045749
2014-11-11,105768.69208156408
2014-11-12,102125.20071978233
2014-11-13,59815.1244348765
2014-11-14,55791.62231009552
2014-11-15,76855.33650421775
2014-11-16,145432.88555906256
2014-11-17,54886.145673123836
2014-11-18,57590.51233303351
2014-11-19,101068.17878985201
2014-11-20,166370.5268574651
2014-11-21,648368.1024749668
2014-11-22,1489599.866869602
2014-11-23,532954.9775524245
2014-11-24,902828.3966687958
2014-11-25,255516.24439135616
2014-11-26,474729.09777565644
2014-11-27,1383067.4617771397
2014-11-28,1246121.1135037509
2014-11-29,986784.3708561475
2014-11-30,1561245.8423979187
2014-12-01,749166.3802601313
2014-12-02,298174.86097820057
2014-12-03,1547492.2723866238
2014-12-04,896163.8529139495
2014-12-05,1555848.1330150082
2014-12-06,755040.8618421495
2014-12-07,777251.7886892615
2014-12-08,1509230.8449198983
2014-12-09,443741.8908279617
2014-12-10,1810060.4599996167
2014-12-11,497125.26008452964
2014-12-12,1661415.0460407173
2014-12-13,1248835.461010649
2014-12-14,1365716.6660729554
2014-12-15,1261790.263216445
2014-12-16,1252172.1658581805
2014-12-17,1488445.7766385165
2014-12-18,759527.4002544443
2014-12-19,1444356.6360004088
2014-12-20,1381401.1728016117
2014-12-21,1591600.0817342964
2014-12-22,730759.658816605
2014-12-23,1554089.7225194997
2014-12-24,535366.327136203
2014-12-25,1052806.7256011378
2014-12-26,58627.62312210341
2014-12-27,1023062.4885974217
2014-12-28,721679.9942608343
2014-12-29,1190175.401692979
2014-12-30,1213536.834882583
2014-12-31,1048942.5598138715
2015-01-01,1429541.8426394202
2015-01-02,1159200.5304255325
2015-01-03,1167390.9163981564
2015-01-04,1232255.898958343
2015-01-05,1749720.43906235
2015-01-06,1000043.1260164866
2015-01-07,1068769.5639149481
2015-01-08,1263738.8506467142
2015-01-09,818705.8126322175
2015-01-10,1309807.8314296862
2015-01-11,1200480.4547499425
2015-01-12,1111134.0817103307
2015-01-13,1471516.018421259
2015-01-14,1369355.106178545
2015-01-15,1004780.9300200923
2015-01-16,1194701.7905651992
2015-01-17,1296468.7258702568
2015-01-18,843184.3618870825
2015-01-19,1698053.061645761
2015-01-20,814191.8294388034
2015-01-21,705889.278477535
2015-01-22,129912.12269205475
2015-01-23,188078.94542809846
2015-01-24,824865.7093246164
2015-01-25,759759.5035235586
2015-01-26,1314291.894074552
2015-01-27,757254.9633644014
2015-01-28,615346.3354756914
2015-01-29,114581.38790252138
2015-01-30,552249.6238510134
2015-01-31,1124677.411492416
2015-02-01,949519.0385772364
2015-02-02,702264.7669663806
2015-02-03,226342.14539115276
2015-02-04,97455.50805435181
2015-02-05,341830.17836391076
2015-02-06,1618072.2091820766
2015-02-07,489237.6306446349
2015-02-08,375217.72470295976
2015-02-09,171577.2642209151
2015-02-10,930344.2726002109
2015-02-11,948628.0989486804
2015-02-12,733507.6230848957
2015-02-13,376264.2245694363
2015-02-14,1480504.6565301167
2015-02-15,771245.0383328018
2015-02-16,1077957.0738246655
2015-02-17,300132.8183887973
2015-02-18,355122.00889217056
2015-02-19,744052.4310045462
2015-02-20,797534.2079587289
2015-02-21,212133.68451419196
2015-02-22,197013.8145067655
2015-02-23,130002.43379961661
2015-02-24,35244.01579868698
2015-02-25,124546.61772415516
2015-02-26,284090.3666278419
2015-02-27,475679.80070351256
2015-02-28,907602.2862758132
2015-03-01,1014203.1580189858
2015-03-02,369020.08316200855
2015-03-03,1061066.6477774489
2015-03-04,207753.4560056999
2015-03-05,128020.51318442517
2015-03-06,644669.6583954704
2015-03-07,624956.3216329612
2015-03-08,249889.1438386952
2015-03-09,145430.68879568682
2015-03-10,138670.22831876538
2015-03-11,215240.5598735767
2015-03-12,183702.93990808353
2015-03-13,416180.4325412581
2015-03-14,1159177.2183842866
2015-03-15,711598.0574335608
2015-03-16,793365.3345316985
2015-03-17,238570.3092178593
2015-03-18,112619.51186581833
2015-03-19,239661.4634570395
2015-03-20,174616.453977001
2015-03-21,234486.0531741291
2015-03-22,4847.550307089619
2015-03-23,123576.74323325287
2015-03-24,111108.44584564054
2015-03-25,306000.60741886595
2015-03-26,195402.15590654095
2015-03-27,450384.3849678716
2015-03-28,875014.0498071935
2015-03-29,765244.2954616687
2015-03-30,646061.7167413546
2015-03-31,163365.7487309876
2015-04-01,212183.94241418847
2015-04-02,528342.4068491177
2015-04-03,582565.2852190272
2015-04-04,269427.77179322724
2015-04-05,32.61240906237692
2015-04-06,6.463648490981349
2015-04-07,18.261455383256205
2015-04-08,15.771350912148636
2015-04-09,3.3358524067568016
2015-04-10,779.0936555357653
2015-04-14,72.59419957630304
2015-04-21,0.0
2015-08-01,1278473.8152538291
2015-08-02,106.34255357879293
2015-08-07,100.85192444452662
2015-08-09,68.05977222657297
2015-08-12,6.96407165108029
2015-08-13,17908.538351894655
2015-08-14,0.0
2015-08-15,5163.2193647400245
2015-08-16,161.8954089820682
2015-08-17,200.16324205058524
2015-08-18,287.2861828462053
2015-08-19,727.044475438142
2015-08-20,849.7187394964545
2015-08-21,470.25573062967396
2015-08-22,547.8275160563253
2015-08-23,569.7975608387941
2015-08-24,539.0146373115069
2015-08-25,518.9783989234307
2015-08-26,5147.9768748851975
2015-08-27,0.0
2015-08-28,45.11916039240076
2015-08-29,13.979682315956536
2015-08-30,0.0
2015-08-31,65.44328553780925
2015-09-01,0.0
2015-09-02,1531.6758270833993
2015-09-03,4744.091680912191
2015-09-04,3495.2588601077664
2015-09-05,8.967008889015391
2015-09-06,22.23901604657788
2015-09-07,75.47808055236594
2015-09-09,8.967008889015391
2015-09-10,1508.5717454523513
2015-09-11,21.63000919790141
2015-09-12,1305.985589891805
2015-09-13,27.64122828669111
2015-09-14,4165.442452893759
2015-09-15,1303.1250078995483
2015-09-16,135.88994135538667
2015-09-17,166.5952417223184
2015-09-19,169.2568207866401
2015-09-20,20.63091885159954
2015-09-21,1313.3315706329213
2015-09-22,20787.08923428438
2015-09-23,35271.438974177785
2015-09-24,5850.88932253346
2015-09-25,5.9912924211698355
2015-09-26,0.0
2015-09-27,8.967008375831748
2015-09-29,0.0
2015-09-30,5589.791373159431
2015-10-03,190203.7895346164
2015-10-04,244897.9735458978
2015-10-05,296766.12293122796
2015-10-06,311067.8625565975
2015-10-07,311346.2980939218
2015-10-08,338722.2203278119
2015-10-09,334568.19418594934
2015-10-10,286816.4739898891
2015-10-11,1375.661148092975
2015-10-12,278929.63196837244
2015-10-13,282465.13415818673
2015-10-14,222310.06389384123
2015-10-15,283929.7164058322
2015-10-16,273698.42625007604
2015-10-17,245598.93030670108
2015-10-18,266484.20482054737
2015-10-19,283013.93181645684
2015-10-20,275255.7314505935
2015-10-21,203850.73175864128
2015-10-22,238446.8485604448
2015-10-23,221362.94958830698
2015-10-24,119614.61587017449
2015-10-25,83130.82917539893
2015-10-26,253088.4976188824
2015-10-27,354459.97026861826
2015-10-28,368751.4616133362
2015-10-29,329534.5014667714
2015-10-30,509592.84395372024
2015-10-31,365418.6851847162
