{
    "control_mode": 1,
    "dt_hr": 0.016666666666667,
    "input_power": 10,                             "__": "variable, kW",
    "chem": 0,
    "nominal_energy": 20,                          "__": "variable, kWh.",
    "nominal_voltage": 12,                         "__": "Is this reasonable?",
    "initial_SOC": 0,
    "minimum_SOC": 20,                             "__": "Variable, %.",
    "maximum_SOC": 80,                             "__": "Variable, %.",
    "leadacid_q20": 100,                           "__": "SAM default.",
    "leadacid_q10": 100,                            "__": "SAM default.",
    "leadacid_qn": 100,                             "__": "SAM default.",
    "leadacid_tn": 1,                              "__": "SAM default.",
    "voltage_choice": 1,                           "__": "If this is 1, then you can set the voltage at various depths of discharge. Otherwise, the model requires other cell parameters.",
    "voltage_matrix": [
        [98.56209647,1.8373858133333334],
        [93.62315099,1.8635151749999999],
        [88.56255662,1.8853449033333334],
        [83.23433466,1.9035573033333335],
        [78.46326467,1.9189229733333333],
        [73.51458728,1.9358400583333333],
        [67.66327504,1.9543889116666666],
        [62.83207574,        1.96945251],
        [57.71239475,1.9835920166666667],
        [52.68525382,1.9951890600000002],
        [47.83450381,        2.00585989],
        [42.90598538,2.0162193916666666],
        [37.77900546,2.0260255716666666],
        [32.72571002, 2.034813751666667],
        [27.59699226,2.0438551383333334],
        [22.72964586,2.0526843366666667],
        [ 17.3805698,2.0609181783333335],
        [14.77641435,2.0646904283333334],
        [12.17616904, 2.068070216666667],
        [9.493810723,2.0704600333333336],
        [6.893565416,       2.073290315],
        [4.605349545,       2.075354545],
        [1.802558814,2.0771636250000003],
        [0.269782633,         2.0779469]
    ],                                             "__": "SAM default.",
    "Vnom_default": 2,                             "__": "SAM default.",
    "resistance": 0.25,                            "__": "SAM default.",
    "Qfull": 30,                                   "__": "SAM default.",
    "life_model": 0,                               "__": "SAM default.",
    "cycling_matrix": [
        [100,   0,107.0336711],
        [100,  78,106.2367595],
        [100, 155,99.31591834],
        [100, 225, 88.4519364],
        [100, 283,76.90447695],
        [100, 331,65.70010163],
        [ 60,   0,99.66594258],
        [ 60,  82, 103.067629],
        [ 60, 157,105.9231793],
        [ 60, 230,108.0512886],
        [ 60, 305,109.1644466],
        [ 60, 379,  109.01082],
        [ 60, 455,107.1583692],
        [ 60, 531,102.6818697],
        [ 60, 608,95.91097842],
        [ 60, 682,86.06425502],
        [ 60, 744,74.42387647],
        [ 60, 783,64.27151711],
        [ 50,   0, 99.6659426],
        [ 50,  82, 103.101846],
        [ 50, 155, 105.956063],
        [ 50, 230, 108.051289],
        [ 50, 305, 109.164447],
        [ 50, 379, 108.988919],
        [ 50, 455, 107.612098],
        [ 50, 530, 105.571679],
        [ 50, 606,  102.15444],
        [ 50, 682, 97.3285329],
        [ 50, 759, 90.9095439],
        [ 50, 835, 82.5464166],
        [ 50, 911, 72.1192173],
        [ 50, 962, 63.3411373],
        [ 30,   0,99.66816445],
        [ 30,  82,102.9787542],
        [ 30, 157,105.8934062],
        [ 30, 230,108.0512886],
        [ 30, 305,109.2577652],
        [ 30, 379,110.2242797],
        [ 30, 454,110.8352945],
        [ 30, 528,110.9241694],
        [ 30, 603,110.5353418],
        [ 30, 679,109.6465929],
        [ 30, 753,108.2712539],
        [ 30, 829,106.4115468],
        [ 30, 904,104.0674716],
        [ 30, 981,101.2390282],
        [ 30,1056,97.92399471],
        [ 30,1131,94.10015251],
        [ 30,1208,89.78083279],
        [ 30,1283,84.92604185],
        [ 30,1360, 79.5268922],
        [ 30,1437,73.49006521],
        [ 30,1513,66.73557347],
        [ 30,1565,61.90605633]
    ],                                             "__": "SAM Default. TODO: Get a citation for this model...",
    "calendar_choice": 0,                          "__": "SAM Default.",
    "mass": 288,                                   "__": "SAM default. TODO: Make sure that the mass is proportional to the power of the battery. Remove the mass from here, and calculate it in the python script.",
    "surface_area": 1.5078,                        "__": "Ditto. TODO.",
    "Cp": 660.0,
    "h": 7.5,
    "T_room_init": 20,
    "cap_vs_temp": [
        [-27.694800830, 37.43024553],
        [-22.981521830, 44.52058055],
        [-18.268242830, 50.93737703],
        [-13.508297690, 56.73025835],
        [ -8.748352565, 62.03789267],
        [ -3.988407434, 67.12710044],
        [  0.771537696, 72.12867600],
        [  5.531482826, 77.16164220],
        [ 10.291427960, 82.26916118],
        [ 15.051373090, 87.45384882],
        [ 19.811318220, 92.66469533],
        [ 24.571263350, 97.79183346],
        [ 29.331208480,102.69269740],
        [ 34.091153610,107.14362880],
        [ 38.851098740,110.89219460],
        [ 43.611043870,113.62056450],
        [ 48.044326100,114.95038620]
    ],                                             "__": "SAM Default. TODO: Get a citation for this model...",
    "__": "`replacement_option` sounds like a nice parameter to set. Notifies the program when the battery needs to be replaced."
}
